Date,Value
2019-01-14,67.19
2019-01-13,66.89
2019-01-12,66.89
2019-01-11,67.0339
2019-01-10,67.1275
2019-01-09,66.9748
2019-01-08,67.0412
2019-01-04,67.8064
2019-01-03,68.8594
2018-12-29,69.8395
2018-12-28,69.6895
2018-12-27,69.402
2018-12-26,69.062
2018-12-25,68.8148
2018-12-24,68.3649
2018-12-21,68.6436
2018-12-20,68.4105
2018-12-19,67.5685
2018-12-18,66.9401
2018-12-17,66.7463
2018-12-14,66.7484
2018-12-13,66.3461
2018-12-12,66.3282
2018-12-11,66.4701
2018-12-10,66.4371
2018-12-07,66.144
2018-12-06,67.0093
2018-12-05,66.8169
2018-12-04,66.5917
2018-12-03,66.6295
2018-11-30,66.9269
2018-11-29,66.2049
2018-11-28,67.367
2018-11-27,67.0631
2018-11-26,67.077
2018-11-23,66.2845
2018-11-22,65.5713
2018-11-21,65.886
2018-11-20,66.0478
2018-11-19,65.8437
2018-11-16,65.8579
2018-11-15,66.3238
2018-11-14,67.0663
2018-11-13,68.0113
2018-11-12,67.6478
2018-11-09,67.5194
2018-11-08,66.4965
2018-11-07,66.1649
2018-11-06,66.0158
2018-11-02,66.0121
2018-11-01,65.6933
2018-10-31,65.8098
2018-10-30,65.55
2018-10-29,65.6049
2018-10-26,65.7752
2018-10-25,65.5403
2018-10-24,65.4214
2018-10-23,65.6213
2018-10-22,65.1325
2018-10-19,65.544
2018-10-18,65.7197
2018-10-17,65.33
2018-10-16,65.315
2018-10-15,65.6308
2018-10-12,66.3249
2018-10-11,66.3198
2018-10-10,66.6135
2018-10-09,66.3979
2018-10-08,66.7515
2018-10-05,66.5975
2018-10-04,66.8994
2018-10-03,65.6871
2018-10-02,65.3098
2018-10-01,65.3756
2018-09-28,65.4168
2018-09-27,65.6247
2018-09-26,65.8736
2018-09-25,65.8646
2018-09-24,65.8229
2018-09-21,66.5051
2018-09-20,66.3074
2018-09-19,66.7882
2018-09-18,67.395
2018-09-17,68.011
2018-09-14,67.9192
2018-09-13,68.4718
2018-09-12,68.8261
2018-09-11,69.6693
2018-09-10,70.5195
2018-09-07,69.6254
2018-09-06,69.3362
2018-09-05,68.4145
2018-09-04,68.0098
2018-09-03,68.1048
2018-08-31,67.6556
2018-08-30,68.2713
2018-08-29,68.185
2018-08-28,67.6703
2018-08-27,67.2079
2018-08-24,67.4683
2018-08-23,68.1963
2018-08-22,67.9243
2018-08-21,67.3391
2018-08-20,67.1979
2018-08-17,67.4823
2018-08-16,66.7876
2018-08-15,67.681
2018-08-14,66.4964
2018-08-13,67.9418
2018-08-10,67.8088
2018-08-09,66.3037
2018-08-08,64.8555
2018-08-07,63.4951
2018-08-06,63.6337
2018-08-03,63.2197
2018-08-02,63.3698
2018-08-01,62.8684
2018-07-31,62.3324
2018-07-30,62.2149
2018-07-27,62.7101
2018-07-26,62.881
2018-07-25,62.9886
2018-07-24,62.7479
2018-07-23,63.0437
2018-07-20,63.531
2018-07-19,63.5812
2018-07-18,63.151
2018-07-17,62.4811
2018-07-16,62.2813
2018-07-13,62.1495
2018-07-12,62.1231
2018-07-11,62.0332
2018-07-10,61.9647
2018-07-09,62.657
2018-07-06,62.9627
2018-07-05,63.1005
2018-07-04,63.2513
2018-07-03,63.1885
2018-07-02,63.4416
2018-06-29,62.6669
2018-06-28,63.0045
2018-06-27,63.1143
2018-06-26,63.1125
2018-06-25,62.8971
2018-06-22,62.9723
2018-06-21,63.695
2018-06-20,63.507
2018-06-19,63.7967
2018-06-18,63.6137
2018-06-15,63.1015
2018-06-14,62.2185
2018-06-13,62.3341
2018-06-11,62.665
2018-06-09,62.542
2018-06-08,62.5117
2018-06-07,62.295
2018-06-06,61.9343
2018-06-05,62.2711
2018-06-04,62.0455
2018-06-01,62.1005
2018-05-31,62.3795
2018-05-30,62.2373
2018-05-29,62.6825
2018-05-28,62.3797
2018-05-25,62.1078
2018-05-24,61.575
2018-05-23,61.5602
2018-05-22,60.9809
2018-05-21,61.6538
2018-05-18,62.4852
2018-05-17,61.9457
2018-05-16,61.9148
2018-05-15,62.457
2018-05-14,61.7603
2018-05-11,61.8776
2018-05-10,61.7671
2018-05-08,63.4934
2018-05-07,62.7155
2018-05-04,62.9013
2018-05-03,63.4965
2018-05-02,63.9273
2018-04-30,62.98
2018-04-28,62.1687
2018-04-27,62.1204
2018-04-26,62.7936
2018-04-25,62.402
2018-04-24,61.5332
2018-04-23,61.9492
2018-04-20,61.3839
2018-04-19,60.9117
2018-04-18,61.1594
2018-04-17,61.5503
2018-04-16,62.2309
2018-04-13,62.0383
2018-04-12,61.8805
2018-04-11,63.7339
2018-04-10,62.7784
2018-04-09,60.1535
2018-04-06,58.1197
2018-04-05,57.7093
2018-04-04,57.5392
2018-04-03,57.65
2018-04-02,57.6058
2018-03-30,57.2599
2018-03-29,57.4631
2018-03-28,57.7563
2018-03-27,57.2942
2018-03-26,57.3469
2018-03-23,57.0769
2018-03-22,57.1983
2018-03-21,57.2797
2018-03-20,57.4659
2018-03-19,57.9073
2018-03-16,57.63
2018-03-15,57.3955
2018-03-14,57.2854
2018-03-13,56.825
2018-03-12,56.9075
2018-03-09,56.6485
2018-03-07,56.8261
2018-03-06,56.6239
2018-03-05,56.8618
2018-03-02,57.1513
2018-03-01,56.8119
2018-02-28,56.2861
2018-02-27,56.2803
2018-02-26,55.9628
2018-02-22,56.583
2018-02-21,56.6108
2018-02-20,56.547
2018-02-19,56.4214
2018-02-16,56.2398
2018-02-15,56.5381
2018-02-14,57.1396
2018-02-13,57.7868
2018-02-12,57.9817
2018-02-09,58.3693
2018-02-08,57.9528
2018-02-07,57.1622
2018-02-06,57.1994
2018-02-05,56.7556
2018-02-02,56.4783
2018-02-01,56.0946
2018-01-31,56.2555
2018-01-30,56.3449
2018-01-29,56.4134
2018-01-26,56.1947
2018-01-25,55.7395
2018-01-24,56.2361
2018-01-23,56.4146
2018-01-22,56.5818
2018-01-19,56.671
2018-01-18,56.5748
2018-01-17,56.7396
2018-01-16,56.4024
2018-01-15,56.35
2018-01-12,56.5153
2018-01-11,56.6713
2018-01-10,56.9568
2018-01-09,57.035
2018-01-05,57.0035
2018-01-04,57.0176
2018-01-03,57.3287
2017-12-29,57.5708
2017-12-28,57.5758
2017-12-27,57.7488
2017-12-26,57.6968
2017-12-25,57.97
2017-12-22,58.3315
2017-12-21,58.5162
2017-12-20,58.6613
2017-12-19,58.8115
2017-12-18,58.5793
2017-12-15,58.8195
2017-12-14,58.7915
2017-12-13,58.8358
2017-12-12,59.196
2017-12-11,59.1477
2017-12-08,59.2313
2017-12-07,59.1812
2017-12-06,59.1441
2017-12-05,58.7047
2017-12-04,58.8837
2017-12-01,58.5383
2017-11-30,58.4805
2017-11-29,58.456
2017-11-28,58.4021
2017-11-27,58.2472
2017-11-24,58.3845
2017-11-23,58.4182
2017-11-22,58.7085
2017-11-21,59.1775
2017-11-20,59.4583
2017-11-17,59.305
2017-11-16,59.6378
2017-11-15,60.1456
2017-11-14,60.0423
2017-11-13,59.441
2017-11-10,59.0766
2017-11-09,59.2297
2017-11-08,59.2333
2017-11-07,59.2026
2017-11-03,59.0965
2017-11-02,58.3782
2017-11-01,58.2464
2017-10-31,58.4061
2017-10-30,57.88
2017-10-27,58.2598
2017-10-26,57.6605
2017-10-25,57.7423
2017-10-24,57.6302
2017-10-23,57.48
2017-10-20,57.532
2017-10-19,57.3454
2017-10-18,57.4828
2017-10-17,57.4909
2017-10-16,57.2901
2017-10-13,57.1619
2017-10-12,57.6905
2017-10-11,57.8913
2017-10-10,57.93
2017-10-09,58.3143
2017-10-06,58.1515
2017-10-05,57.5031
2017-10-04,57.5416
2017-10-03,57.9024
2017-10-02,57.9343
2017-09-29,57.5643
2017-09-28,57.9813
2017-09-27,58.1749
2017-09-26,57.8795
2017-09-25,57.655
2017-09-22,57.5397
2017-09-21,57.9416
2017-09-20,57.7471
2017-09-19,58.2188
2017-09-18,57.9603
2017-09-15,57.5913
2017-09-14,57.432
2017-09-13,57.8618
2017-09-12,57.6901
2017-09-11,57.151
2017-09-08,57.1953
2017-09-07,57.0117
2017-09-06,57.3454
2017-09-05,57.3485
2017-09-04,57.8012
2017-09-01,57.5609
2017-08-31,58.1331
2017-08-30,58.3583
2017-08-29,58.6953
2017-08-28,58.5726
2017-08-25,58.7906
2017-08-24,59.2115
2017-08-23,59.0434
2017-08-22,59.0198
2017-08-21,59.0169
2017-08-18,59.1735
2017-08-17,59.1481
2017-08-16,59.4361
2017-08-15,59.7964
2017-08-14,59.6285
2017-08-11,59.9235
2017-08-10,59.9963
2017-08-09,60.1415
2017-08-08,59.7668
2017-08-07,60.1066
2017-08-04,59.9371
2017-08-03,60.1418
2017-08-02,60.6187
2017-08-01,60.2605
2017-07-31,60.0408
2017-07-28,59.5225
2017-07-27,59.436
2017-07-26,59.6675
2017-07-25,59.9978
2017-07-24,60.0326
2017-07-21,59.1728
2017-07-20,59.0438
2017-07-19,58.9463
2017-07-18,59.085
2017-07-17,59.3801
2017-07-14,59.1478
2017-07-13,59.9495
2017-07-12,60.0259
2017-07-11,60.9481
2017-07-10,60.2948
2017-07-07,60.5355
2017-07-06,59.8795
2017-07-05,60.0544
2017-07-04,59.358
2017-07-03,59.3761
2017-06-30,59.1519
2017-06-29,59.2301
2017-06-28,59.4334
2017-06-27,58.9675
2017-06-26,59.0291
2017-06-23,59.4876
2017-06-22,59.886
2017-06-21,59.9023
2017-06-20,59.6614
2017-06-19,58.3691
2017-06-16,57.7501
2017-06-15,57.7295
2017-06-14,57.1237
2017-06-13,56.8716
2017-06-09,56.9657
2017-06-08,56.8528
2017-06-07,56.9067
2017-06-06,56.5779
2017-06-05,56.6398
2017-06-02,56.6748
2017-06-01,56.3284
2017-05-31,56.8369
2017-05-30,56.653
2017-05-29,56.3097
2017-05-26,56.7857
2017-05-25,56.6143
2017-05-24,56.5392
2017-05-23,56.298
2017-05-22,56.7061
2017-05-19,56.8328
2017-05-18,57.5643
2017-05-17,56.8925
2017-05-16,56.4103
2017-05-15,56.3426
2017-05-12,57.1347
2017-05-11,57.047
2017-05-10,57.4761
2017-05-05,58.1018
2017-05-04,58.2386
2017-05-03,57.2849
2017-05-02,56.998
2017-04-28,57.0077
2017-04-27,57.2505
2017-04-26,57.0564
2017-04-25,56.1645
2017-04-24,55.8499
2017-04-21,56.5069
2017-04-20,56.1843
2017-04-19,56.5005
2017-04-18,56.1576
2017-04-17,55.9277
2017-04-14,56.2525
2017-04-13,56.2355
2017-04-12,56.8847
2017-04-11,57.1084
2017-04-10,57.272
2017-04-07,57.1569
2017-04-06,56.3456
2017-04-05,56.2076
2017-04-04,56.1748
2017-04-03,56.3459
2017-03-31,56.4528
2017-03-30,56.0061
2017-03-29,56.6726
2017-03-28,56.8856
2017-03-27,56.8953
2017-03-24,57.1347
2017-03-23,57.466
2017-03-22,57.8207
2017-03-21,57.522
2017-03-20,57.3836
2017-03-17,57.7113
2017-03-16,57.8834
2017-03-15,59.0726
2017-03-14,59.2688
2017-03-13,58.934
2017-03-10,58.8902
2017-03-09,59.4066
2017-03-07,58.1234
2017-03-06,58.0825
2017-03-03,58.4666
2017-03-02,58.6897
2017-03-01,58.492
2017-02-28,58.3299
2017-02-27,57.9823
2017-02-24,58.3982
2017-02-22,57.8994
2017-02-21,57.7008
2017-02-20,58.0289
2017-02-17,58.1868
2017-02-16,57.547
2017-02-15,57.4137
2017-02-14,57.4646
2017-02-13,58.0408
2017-02-10,58.5064
2017-02-09,58.8767
2017-02-08,59.226
2017-02-07,59.2738
2017-02-06,59.0876
2017-02-03,58.9242
2017-02-02,59.6352
2017-02-01,60.215
2017-01-31,60.0031
2017-01-30,59.8653
2017-01-27,59.7063
2017-01-26,60.35
2017-01-25,59.1046
2017-01-24,59.2917
2017-01-23,59.4253
2017-01-20,59.7398
2017-01-19,59.9283
2017-01-18,59.3605
2017-01-17,59.3484
2017-01-16,59.9108
2017-01-13,59.7083
2017-01-12,59.2903
2017-01-11,60.4858
2017-01-10,59.9875
2017-01-09,60.0373
2017-01-06,59.4782
2017-01-05,59.2607
2017-01-04,60.6085
2017-01-03,60.5357
2016-12-30,61.0378
2016-12-29,60.7418
2016-12-28,60.413
2016-12-27,60.7259
2016-12-26,61.0034
2016-12-23,61.2389
2016-12-22,60.8507
2016-12-21,61.0874
2016-12-20,61.3855
2016-12-19,61.7656
2016-12-16,61.903
2016-12-15,61.9274
2016-12-14,61.118
